 rank is            2           1           1           9        1024
        1024          12
 rank is            6           1           1          25        1024
        1024          28
 rank is            5           1           1          21        1024
        1024          24
 rank is            3           1           1          13        1024
        1024          16
 rank is           24           1           1          97        1024
        1024         100
 rank is           34           1           1         137        1024
        1024         140
 rank is           56           1           1         225        1024
        1024         228
 rank is           58           1           1         233        1024
        1024         236
 rank is           26           1           1         105        1024
        1024         108
 rank is           39           1           1         157        1024
        1024         160
 rank is           41           1           1         165        1024
        1024         168
 rank is            7           1           1          29        1024
        1024          32
 rank is           46           1           1         185        1024
 rank is           27           1           1         109        1024
        1024         112
 rank is           35           1           1         141        1024
 rank is           38           1           1         153        1024
        1024         156
 rank is            1           1           1           5        1024
        1024           8
 rank is            0           1           1           1        1024
        1024           4
 rank is           61           1           1         245        1024
        1024         248
        1024         144
 rank is            4           1           1          17        1024
        1024          20
 rank is           30           1           1         121        1024
        1024         124
 rank is           62           1           1         249        1024
        1024         252
 rank is            8           1           1          33        1024
        1024          36
 rank is           15           1           1          61        1024
        1024          64
 rank is           32           1           1         129        1024
        1024         132
 rank is           11           1           1          45        1024
        1024          48
 rank is           36           1           1         145        1024
        1024         148
 rank is           37           1           1         149        1024
        1024         152
 rank is           28           1           1         113        1024
        1024         116
 rank is           33           1           1         133        1024
        1024         136
 rank is           29           1           1         117        1024
        1024         120
 rank is           25           1           1         101        1024
        1024         104
 rank is           31           1           1         125        1024
        1024         128
 rank is           14           1           1          57        1024
        1024          60
 rank is           57           1           1         229        1024
        1024         232
 rank is           59           1           1         237        1024
        1024         240
 rank is           51           1           1         205        1024
        1024         208
 rank is            9           1           1          37        1024
        1024          40
 rank is           12           1           1          49        1024
        1024          52
 rank is           53           1           1         213        1024
        1024         216
 rank is           54           1           1         217        1024
        1024         220
 rank is           13           1           1          53        1024
        1024          56
 rank is           10           1           1          41        1024
        1024          44
 rank is           21           1           1          85        1024
        1024          88
 rank is           17           1           1          69        1024
        1024          72
 rank is           63           1           1         253        1024
        1024         256
 rank is           60           1           1         241        1024
        1024         244
 rank is           20           1           1          81        1024
        1024          84
 rank is           18           1           1          73        1024
        1024          76
 rank is           52           1           1         209        1024
 rank is           16           1           1          65        1024
        1024          68
 rank is           48           1           1         193        1024
        1024         196
 rank is           49           1           1         197        1024
        1024         200
 rank is           50           1           1         201        1024
        1024         204
 rank is           55           1           1         221        1024
        1024         224
        1024         212
 rank is           40           1           1         161        1024
        1024         164
 rank is           42           1           1         169        1024
        1024         172
 rank is           43           1           1         173        1024
        1024         176
 rank is           44           1           1         177        1024
        1024         180
 rank is           45           1           1         181        1024
        1024         184
 rank is           47           1           1         189        1024
        1024         192
        1024         188
 rank is           22           1           1          89        1024
        1024          92
 rank is           19           1           1          77        1024
        1024          80
 rank is           23           1           1          93        1024
        1024          96
 norm =    14.4050610585137     
 flucamp is    4.04292170307254     
 Total fluctuation amplitude is delx^2 =   3.855630591461694E-006
 norm =    14.4050610585137     
 flucamp is    3.99144695359984     
 Total fluctuation amplitude is delx^2 =   3.806540444946137E-006
 #step            1
 #step            2
 #step            3
 #step            4
 #step            5
 #step            6
 #step            7
 #step            8
 #step            9
 #step           10
 #step           11
 #step           12
 #step           13
 #step           14
 #step           15
 #step           16
 #step           17
 #step           18
 #step           19
 #step           20
 #step           21
 #step           22
 #step           23
 #step           24
 #step           25
 #step           26
 #step           27
 #step           28
 #step           29
 #step           30
 #step           31
 #step           32
 #step           33
 #step           34
 #step           35
 #step           36
 #step           37
 #step           38
 #step           39
 #step           40
 #step           41
 #step           42
 #step           43
 #step           44
 #step           45
 #step           46
 #step           47
 #step           48
 #step           49
 #step           50
 #step           51
 #step           52
 #step           53
 #step           54
 #step           55
 #step           56
 #step           57
 #step           58
 #step           59
 #step           60
 #step           61
 #step           62
 #step           63
 #step           64
 #step           65
 #step           66
 #step           67
 #step           68
 #step           69
 #step           70
 #step           71
 #step           72
 #step           73
 #step           74
 #step           75
 #step           76
 #step           77
 #step           78
 #step           79
 #step           80
 #step           81
 #step           82
 #step           83
 #step           84
 #step           85
 #step           86
 #step           87
 #step           88
 #step           89
 #step           90
 #step           91
 #step           92
 #step           93
 #step           94
 #step           95
 #step           96
 #step           97
 #step           98
 #step           99
 #step          100
 #step          101
 #step          102
 #step          103
 #step          104
 #step          105
 #step          106
 #step          107
 #step          108
 #step          109
 #step          110
 #step          111
 #step          112
 #step          113
 #step          114
 #step          115
 #step          116
 #step          117
 #step          118
 #step          119
 #step          120
 #step          121
 #step          122
 #step          123
 #step          124
 #step          125
 #step          126
 #step          127
 #step          128
 #step          129
 #step          130
 #step          131
 #step          132
 #step          133
 #step          134
 #step          135
 #step          136
 #step          137
 #step          138
 #step          139
 #step          140
 #step          141
 #step          142
 #step          143
 #step          144
 #step          145
 #step          146
 #step          147
 #step          148
 #step          149
 #step          150
 #step          151
 #step          152
 #step          153
 #step          154
 #step          155
 #step          156
 #step          157
 #step          158
 #step          159
 #step          160
 #step          161
 #step          162
 #step          163
 #step          164
 #step          165
 #step          166
 #step          167
 #step          168
 #step          169
 #step          170
 #step          171
 #step          172
 #step          173
 #step          174
 #step          175
 #step          176
 #step          177
 #step          178
 #step          179
 #step          180
 #step          181
 #step          182
 #step          183
 #step          184
 #step          185
 #step          186
 #step          187
 #step          188
 #step          189
 #step          190
 #step          191
 #step          192
 #step          193
 #step          194
 #step          195
 #step          196
 #step          197
 #step          198
 #step          199
 #step          200
 #step          201
 #step          202
 #step          203
 #step          204
 #step          205
 #step          206
 #step          207
 #step          208
 #step          209
 #step          210
 #step          211
 #step          212
 #step          213
 #step          214
 #step          215
 #step          216
 #step          217
 #step          218
 #step          219
 #step          220
 #step          221
 #step          222
 #step          223
 #step          224
 #step          225
 #step          226
 #step          227
 #step          228
 #step          229
 #step          230
 #step          231
 #step          232
 #step          233
 #step          234
 #step          235
 #step          236
 #step          237
 #step          238
 #step          239
 #step          240
 #step          241
 #step          242
 #step          243
 #step          244
 #step          245
 #step          246
 #step          247
 #step          248
 #step          249
 #step          250
 #step          251
 #step          252
 #step          253
 #step          254
 #step          255
 #step          256
 #step          257
 #step          258
 #step          259
 #step          260
 #step          261
 #step          262
 #step          263
 #step          264
 #step          265
 #step          266
 #step          267
 #step          268
 #step          269
 #step          270
 #step          271
 #step          272
 #step          273
 #step          274
 #step          275
 #step          276
 #step          277
 #step          278
 #step          279
 #step          280
 #step          281
 #step          282
 #step          283
 #step          284
 #step          285
 #step          286
 #step          287
 #step          288
 #step          289
 #step          290
 #step          291
 #step          292
 #step          293
 #step          294
 #step          295
 #step          296
 #step          297
 #step          298
 #step          299
 #step          300
 #step          301
 #step          302
 #step          303
 #step          304
 #step          305
 #step          306
 #step          307
 #step          308
 #step          309
 #step          310
 #step          311
 #step          312
 #step          313
 #step          314
 #step          315
 #step          316
 #step          317
 #step          318
 #step          319
 #step          320
 #step          321
 #step          322
 #step          323
 #step          324
 #step          325
 #step          326
 #step          327
 #step          328
 #step          329
 #step          330
 #step          331
 #step          332
 #step          333
 #step          334
 #step          335
 #step          336
 #step          337
 #step          338
 #step          339
 #step          340
 #step          341
 #step          342
 #step          343
 #step          344
 #step          345
 #step          346
 #step          347
 #step          348
 #step          349
 #step          350
 #step          351
 #step          352
 #step          353
 #step          354
 #step          355
 #step          356
 #step          357
 #step          358
 #step          359
 #step          360
 #step          361
 #step          362
 #step          363
 #step          364
 #step          365
 #step          366
 #step          367
 #step          368
 #step          369
 #step          370
 #step          371
 #step          372
 #step          373
 #step          374
 #step          375
 #step          376
 #step          377
 #step          378
 #step          379
 #step          380
 #step          381
 #step          382
 #step          383
 #step          384
 #step          385
 #step          386
 #step          387
 #step          388
 #step          389
 #step          390
 #step          391
 #step          392
 #step          393
 #step          394
 #step          395
 #step          396
 #step          397
 #step          398
 #step          399
 #step          400
 #step          401
 #step          402
 #step          403
 #step          404
 #step          405
 #step          406
 #step          407
 #step          408
 #step          409
 #step          410
 #step          411
 #step          412
 #step          413
 #step          414
 #step          415
 #step          416
 #step          417
 #step          418
 #step          419
 #step          420
 #step          421
 #step          422
 #step          423
 #step          424
 #step          425
 #step          426
 #step          427
 #step          428
 #step          429
 #step          430
 #step          431
 #step          432
 #step          433
 #step          434
 #step          435
 #step          436
 #step          437
 #step          438
 #step          439
 #step          440
 #step          441
 #step          442
 #step          443
 #step          444
 #step          445
 #step          446
 #step          447
 #step          448
 #step          449
 #step          450
 #step          451
 #step          452
 #step          453
 #step          454
 #step          455
 #step          456
 #step          457
 #step          458
 #step          459
 #step          460
 #step          461
 #step          462
 #step          463
 #step          464
 #step          465
 #step          466
 #step          467
 #step          468
 #step          469
 #step          470
 #step          471
 #step          472
 #step          473
 #step          474
 #step          475
 #step          476
 #step          477
 #step          478
 #step          479
 #step          480
 #step          481
 #step          482
 #step          483
 #step          484
 #step          485
 #step          486
 #step          487
 #step          488
 #step          489
 #step          490
 #step          491
 #step          492
 #step          493
 #step          494
 #step          495
 #step          496
 #step          497
 #step          498
 #step          499
 #step          500
 #step          501
 #step          502
 #step          503
 #step          504
 #step          505
 #step          506
 #step          507
 #step          508
 #step          509
 #step          510
 #step          511
 #step          512
 #step          513
 #step          514
 #step          515
 #step          516
 #step          517
 #step          518
 #step          519
 #step          520
 #step          521
 #step          522
 #step          523
 #step          524
 #step          525
 #step          526
 #step          527
 #step          528
 #step          529
 #step          530
 #step          531
 #step          532
 #step          533
 #step          534
 #step          535
 #step          536
 #step          537
 #step          538
 #step          539
 #step          540
 #step          541
 #step          542
 #step          543
 #step          544
 #step          545
 #step          546
 #step          547
 #step          548
 #step          549
 #step          550
 #step          551
 #step          552
 #step          553
 #step          554
 #step          555
 #step          556
 #step          557
 #step          558
 #step          559
 #step          560
 #step          561
 #step          562
 #step          563
 #step          564
 #step          565
 #step          566
 #step          567
 #step          568
 #step          569
 #step          570
 #step          571
 #step          572
 #step          573
 #step          574
 #step          575
 #step          576
 #step          577
 #step          578
 #step          579
 #step          580
 #step          581
 #step          582
 #step          583
 #step          584
 #step          585
 #step          586
 #step          587
 #step          588
 #step          589
 #step          590
 #step          591
 #step          592
 #step          593
 #step          594
 #step          595
 #step          596
 #step          597
 #step          598
 #step          599
 #step          600
 #step          601
 #step          602
 #step          603
 #step          604
 #step          605
 #step          606
 #step          607
 #step          608
 #step          609
 #step          610
 #step          611
 #step          612
 #step          613
 #step          614
 #step          615
 #step          616
 #step          617
 #step          618
 #step          619
 #step          620
 #step          621
 #step          622
 #step          623
 #step          624
 #step          625
 #step          626
 #step          627
 #step          628
 #step          629
 #step          630
 #step          631
 #step          632
 #step          633
 #step          634
 #step          635
 #step          636
 #step          637
 #step          638
 #step          639
 #step          640
 #step          641
 #step          642
 #step          643
 #step          644
 #step          645
 #step          646
 #step          647
 #step          648
 #step          649
 #step          650
 #step          651
 #step          652
 #step          653
 #step          654
 #step          655
 #step          656
 #step          657
 #step          658
 #step          659
 #step          660
 #step          661
 #step          662
 #step          663
 #step          664
 #step          665
 #step          666
 #step          667
 #step          668
 #step          669
 #step          670
 #step          671
 #step          672
 #step          673
 #step          674
 #step          675
 #step          676
 #step          677
 #step          678
 #step          679
 #step          680
 #step          681
 #step          682
 #step          683
 #step          684
 #step          685
 #step          686
 #step          687
 #step          688
 #step          689
 #step          690
 #step          691
 #step          692
 #step          693
 #step          694
 #step          695
 #step          696
 #step          697
 #step          698
 #step          699
 #step          700
 #step          701
 #step          702
 #step          703
 #step          704
 #step          705
 #step          706
 #step          707
 #step          708
 #step          709
 #step          710
 #step          711
 #step          712
 #step          713
 #step          714
 #step          715
 #step          716
 #step          717
 #step          718
 #step          719
 #step          720
 #step          721
 #step          722
 #step          723
 #step          724
 #step          725
 #step          726
 #step          727
 #step          728
 #step          729
 #step          730
 #step          731
 #step          732
 #step          733
 #step          734
 #step          735
 #step          736
 #step          737
 #step          738
 #step          739
 #step          740
 #step          741
 #step          742
 #step          743
 #step          744
 #step          745
 #step          746
 #step          747
 #step          748
 #step          749
 #step          750
 #step          751
 #step          752
 #step          753
 #step          754
 #step          755
 #step          756
 #step          757
 #step          758
 #step          759
 #step          760
 #step          761
 #step          762
 #step          763
 #step          764
 #step          765
 #step          766
 #step          767
 #step          768
 #step          769
 #step          770
 #step          771
 #step          772
 #step          773
 #step          774
 #step          775
 #step          776
 #step          777
 #step          778
 #step          779
 #step          780
 #step          781
 #step          782
 #step          783
 #step          784
 #step          785
 #step          786
 #step          787
 #step          788
 #step          789
 #step          790
 #step          791
 #step          792
 #step          793
 #step          794
 #step          795
 #step          796
 #step          797
 #step          798
 #step          799
 #step          800
 #step          801
 #step          802
 #step          803
 #step          804
 #step          805
 #step          806
 #step          807
 #step          808
 #step          809
 #step          810
 #step          811
 #step          812
 #step          813
 #step          814
 #step          815
 #step          816
 #step          817
 #step          818
 #step          819
 #step          820
 #step          821
 #step          822
 #step          823
 #step          824
 #step          825
 #step          826
 #step          827
 #step          828
 #step          829
 #step          830
 #step          831
 #step          832
 #step          833
 #step          834
 #step          835
 #step          836
 #step          837
 #step          838
 #step          839
 #step          840
 #step          841
 #step          842
 #step          843
 #step          844
 #step          845
 #step          846
 #step          847
 #step          848
 #step          849
 #step          850
 #step          851
 #step          852
 #step          853
 #step          854
 #step          855
 #step          856
 #step          857
 #step          858
 #step          859
 #step          860
 #step          861
 #step          862
 #step          863
 #step          864
 #step          865
 #step          866
 #step          867
 #step          868
 #step          869
 #step          870
 #step          871
 #step          872
 #step          873
 #step          874
 #step          875
 #step          876
 #step          877
 #step          878
 #step          879
 #step          880
 #step          881
 #step          882
 #step          883
 #step          884
 #step          885
 #step          886
 #step          887
 #step          888
 #step          889
 #step          890
 #step          891
 #step          892
 #step          893
 #step          894
 #step          895
 #step          896
 #step          897
 #step          898
 #step          899
 #step          900
 #step          901
 #step          902
 #step          903
 #step          904
 #step          905
 #step          906
 #step          907
 #step          908
 #step          909
 #step          910
 #step          911
 #step          912
 #step          913
 #step          914
 #step          915
 #step          916
 #step          917
 #step          918
 #step          919
 #step          920
 #step          921
 #step          922
 #step          923
 #step          924
 #step          925
 #step          926
 #step          927
 #step          928
 #step          929
 #step          930
 #step          931
 #step          932
 #step          933
 #step          934
 #step          935
 #step          936
 #step          937
 #step          938
 #step          939
 #step          940
 #step          941
 #step          942
 #step          943
 #step          944
 #step          945
 #step          946
 #step          947
 #step          948
 #step          949
 #step          950
 #step          951
 #step          952
 #step          953
 #step          954
 #step          955
 #step          956
 #step          957
 #step          958
 #step          959
 #step          960
 #step          961
 #step          962
 #step          963
 #step          964
 #step          965
 #step          966
 #step          967
 #step          968
 #step          969
 #step          970
 #step          971
 #step          972
 #step          973
 #step          974
 #step          975
 #step          976
 #step          977
 #step          978
 #step          979
 #step          980
 #step          981
 #step          982
 #step          983
 #step          984
 #step          985
 #step          986
 #step          987
 #step          988
 #step          989
 #step          990
 #step          991
 #step          992
 #step          993
 #step          994
 #step          995
 #step          996
 #step          997
 #step          998
 #step          999
 #step         1000
 #step         1001
 #step         1002
 #step         1003
 #step         1004
 #step         1005
 #step         1006
 #step         1007
 #step         1008
 #step         1009
 #step         1010
 #step         1011
 #step         1012
 #step         1013
 #step         1014
 #step         1015
 #step         1016
 #step         1017
 #step         1018
 #step         1019
 #step         1020
 #step         1021
 #step         1022
 #step         1023
 #step         1024
 #step         1025
 #step         1026
 #step         1027
 #step         1028
 #step         1029
 #step         1030
 #step         1031
 #step         1032
 #step         1033
 #step         1034
 #step         1035
 #step         1036
 #step         1037
 #step         1038
 #step         1039
 #step         1040
 #step         1041
 #step         1042
 #step         1043
 #step         1044
 #step         1045
 #step         1046
 #step         1047
 #step         1048
 #step         1049
 #step         1050
 #step         1051
 #step         1052
 #step         1053
 #step         1054
 #step         1055
 #step         1056
 #step         1057
 #step         1058
 #step         1059
 #step         1060
 #step         1061
 #step         1062
 #step         1063
 #step         1064
 #step         1065
 #step         1066
 #step         1067
 #step         1068
 #step         1069
 #step         1070
 #step         1071
 #step         1072
 #step         1073
 #step         1074
 #step         1075
 #step         1076
 #step         1077
 #step         1078
 #step         1079
 #step         1080
 #step         1081
 #step         1082
 #step         1083
 #step         1084
 #step         1085
 #step         1086
 #step         1087
 #step         1088
 #step         1089
 #step         1090
 #step         1091
 #step         1092
 #step         1093
 #step         1094
 #step         1095
 #step         1096
 #step         1097
 #step         1098
 #step         1099
 #step         1100
 #step         1101
 #step         1102
 #step         1103
 #step         1104
 #step         1105
 #step         1106
 #step         1107
 #step         1108
 #step         1109
 #step         1110
 #step         1111
 #step         1112
 #step         1113
 #step         1114
 #step         1115
 #step         1116
 #step         1117
 #step         1118
 #step         1119
 #step         1120
 #step         1121
 #step         1122
 #step         1123
 #step         1124
 #step         1125
 #step         1126
 #step         1127
 #step         1128
 #step         1129
 #step         1130
 #step         1131
 #step         1132
 #step         1133
 #step         1134
 #step         1135
 #step         1136
 #step         1137
 #step         1138
 #step         1139
 #step         1140
 #step         1141
 #step         1142
 #step         1143
 #step         1144
 #step         1145
 #step         1146
 #step         1147
 #step         1148
 #step         1149
 #step         1150
 #step         1151
 #step         1152
 #step         1153
 #step         1154
 #step         1155
 #step         1156
 #step         1157
 #step         1158
 #step         1159
 #step         1160
 #step         1161
 #step         1162
 #step         1163
 #step         1164
 #step         1165
 #step         1166
 #step         1167
 #step         1168
 #step         1169
 #step         1170
 #step         1171
 #step         1172
 #step         1173
 #step         1174
 #step         1175
 #step         1176
 #step         1177
 #step         1178
 #step         1179
 #step         1180
 #step         1181
 #step         1182
 #step         1183
 #step         1184
 #step         1185
 #step         1186
 #step         1187
 #step         1188
 #step         1189
 #step         1190
 #step         1191
 #step         1192
 #step         1193
 #step         1194
 #step         1195
 #step         1196
 #step         1197
 #step         1198
 #step         1199
 #step         1200
 #step         1201
 #step         1202
 #step         1203
 #step         1204
 #step         1205
 #step         1206
 #step         1207
 #step         1208
 #step         1209
 #step         1210
 #step         1211
 #step         1212
 #step         1213
 #step         1214
 #step         1215
 #step         1216
 #step         1217
 #step         1218
 #step         1219
 #step         1220
 #step         1221
 #step         1222
 #step         1223
 #step         1224
 #step         1225
 #step         1226
 #step         1227
 #step         1228
 #step         1229
 #step         1230
 #step         1231
 #step         1232
 #step         1233
 #step         1234
 #step         1235
 #step         1236
 #step         1237
 #step         1238
 #step         1239
 #step         1240
 #step         1241
 #step         1242
 #step         1243
 #step         1244
 #step         1245
 #step         1246
 #step         1247
 #step         1248
 #step         1249
 #step         1250
 #step         1251
 #step         1252
 #step         1253
 #step         1254
 #step         1255
 #step         1256
 #step         1257
 #step         1258
 #step         1259
 #step         1260
 #step         1261
 #step         1262
 #step         1263
 #step         1264
 #step         1265
 #step         1266
 #step         1267
 #step         1268
 #step         1269
 #step         1270
 #step         1271
 #step         1272
 #step         1273
 #step         1274
 #step         1275
 #step         1276
 #step         1277
 #step         1278
 #step         1279
 #step         1280
 #step         1281
 #step         1282
 #step         1283
 #step         1284
 #step         1285
 #step         1286
 #step         1287
 #step         1288
 #step         1289
 #step         1290
 #step         1291
 #step         1292
 #step         1293
 #step         1294
 #step         1295
 #step         1296
 #step         1297
 #step         1298
 #step         1299
 #step         1300
 #step         1301
 #step         1302
 #step         1303
 #step         1304
 #step         1305
 #step         1306
 #step         1307
 #step         1308
 #step         1309
 #step         1310
 #step         1311
 #step         1312
 #step         1313
 #step         1314
 #step         1315
 #step         1316
 #step         1317
 #step         1318
 #step         1319
 #step         1320
 #step         1321
 #step         1322
 #step         1323
 #step         1324
 #step         1325
 #step         1326
 #step         1327
 #step         1328
 #step         1329
 #step         1330
 #step         1331
 #step         1332
 #step         1333
 #step         1334
 #step         1335
 #step         1336
 #step         1337
 #step         1338
 #step         1339
 #step         1340
 #step         1341
 #step         1342
 #step         1343
 #step         1344
 #step         1345
 #step         1346
 #step         1347
 #step         1348
 #step         1349
 #step         1350
 #step         1351
 #step         1352
 #step         1353
 #step         1354
 #step         1355
 #step         1356
 #step         1357
 #step         1358
 #step         1359
 #step         1360
 #step         1361
 #step         1362
 #step         1363
 #step         1364
 #step         1365
 #step         1366
 #step         1367
 #step         1368
 #step         1369
 #step         1370
 #step         1371
 #step         1372
 #step         1373
 #step         1374
 #step         1375
 #step         1376
 #step         1377
 #step         1378
 #step         1379
 #step         1380
 #step         1381
 #step         1382
 #step         1383
 #step         1384
 #step         1385
 #step         1386
 #step         1387
 #step         1388
 #step         1389
 #step         1390
 #step         1391
 #step         1392
 #step         1393
 #step         1394
 #step         1395
 #step         1396
 #step         1397
 #step         1398
 #step         1399
 #step         1400
 #step         1401
 #step         1402
 #step         1403
 #step         1404
 #step         1405
 #step         1406
 #step         1407
 #step         1408
 #step         1409
 #step         1410
 #step         1411
 #step         1412
 #step         1413
 #step         1414
 #step         1415
 #step         1416
 #step         1417
 #step         1418
 #step         1419
 #step         1420
 #step         1421
 #step         1422
 #step         1423
 #step         1424
 #step         1425
 #step         1426
 #step         1427
 #step         1428
 #step         1429
 #step         1430
 #step         1431
 #step         1432
 #step         1433
 #step         1434
 #step         1435
 #step         1436
 #step         1437
 #step         1438
 #step         1439
 #step         1440
 #step         1441
 #step         1442
 #step         1443
 #step         1444
 #step         1445
 #step         1446
 #step         1447
 #step         1448
 #step         1449
 #step         1450
 #step         1451
 #step         1452
 #step         1453
 #step         1454
 #step         1455
 #step         1456
 #step         1457
 #step         1458
 #step         1459
 #step         1460
 #step         1461
 #step         1462
 #step         1463
 #step         1464
 #step         1465
 #step         1466
 #step         1467
 #step         1468
 #step         1469
 #step         1470
 #step         1471
 #step         1472
 #step         1473
 #step         1474
 #step         1475
 #step         1476
 #step         1477
 #step         1478
 #step         1479
 #step         1480
 #step         1481
 #step         1482
 #step         1483
 #step         1484
 #step         1485
 #step         1486
 #step         1487
 #step         1488
 #step         1489
 #step         1490
 #step         1491
 #step         1492
 #step         1493
 #step         1494
 #step         1495
 #step         1496
 #step         1497
 #step         1498
 #step         1499
 #step         1500
 #step         1501
 #step         1502
 #step         1503
 #step         1504
 #step         1505
 #step         1506
 #step         1507
 #step         1508
 #step         1509
 #step         1510
 #step         1511
 #step         1512
 #step         1513
 #step         1514
 #step         1515
 #step         1516
 #step         1517
 #step         1518
 #step         1519
 #step         1520
 #step         1521
 #step         1522
 #step         1523
 #step         1524
 #step         1525
 #step         1526
 #step         1527
 #step         1528
 #step         1529
 #step         1530
 #step         1531
 #step         1532
 #step         1533
 #step         1534
 #step         1535
 #step         1536
 #step         1537
 #step         1538
 #step         1539
 #step         1540
 #step         1541
 #step         1542
 #step         1543
 #step         1544
 #step         1545
 #step         1546
 #step         1547
 #step         1548
 #step         1549
 #step         1550
 #step         1551
 #step         1552
 #step         1553
 #step         1554
 #step         1555
 #step         1556
 #step         1557
 #step         1558
 #step         1559
 #step         1560
 #step         1561
 #step         1562
 #step         1563
 #step         1564
 #step         1565
 #step         1566
 #step         1567
 #step         1568
 #step         1569
 #step         1570
 #step         1571
 #step         1572
 #step         1573
 #step         1574
 #step         1575
 #step         1576
 #step         1577
 #step         1578
 #step         1579
 #step         1580
 #step         1581
 #step         1582
 #step         1583
 #step         1584
 #step         1585
 #step         1586
 #step         1587
 #step         1588
 #step         1589
 #step         1590
 #step         1591
 #step         1592
 #step         1593
 #step         1594
 #step         1595
 #step         1596
 #step         1597
 #step         1598
 #step         1599
 #step         1600
 #step         1601
 #step         1602
 #step         1603
 #step         1604
 #step         1605
 #step         1606
 #step         1607
 #step         1608
 #step         1609
 #step         1610
 #step         1611
 #step         1612
 #step         1613
 #step         1614
 #step         1615
 #step         1616
 #step         1617
 #step         1618
 #step         1619
 #step         1620
 #step         1621
 #step         1622
 #step         1623
 #step         1624
 #step         1625
 #step         1626
 #step         1627
 #step         1628
 #step         1629
 #step         1630
 #step         1631
 #step         1632
 #step         1633
 #step         1634
 #step         1635
 #step         1636
 #step         1637
 #step         1638
 #step         1639
 #step         1640
 #step         1641
 #step         1642
 #step         1643
 #step         1644
 #step         1645
 #step         1646
 #step         1647
 #step         1648
 #step         1649
 #step         1650
 #step         1651
 #step         1652
 #step         1653
 #step         1654
 #step         1655
 #step         1656
 #step         1657
 #step         1658
 #step         1659
 #step         1660
 #step         1661
 #step         1662
 #step         1663
 #step         1664
 #step         1665
 #step         1666
 #step         1667
 #step         1668
 #step         1669
 #step         1670
 #step         1671
 #step         1672
 #step         1673
 #step         1674
 #step         1675
 #step         1676
 #step         1677
 #step         1678
 #step         1679
 #step         1680
 #step         1681
 #step         1682
 #step         1683
 #step         1684
 #step         1685
 #step         1686
 #step         1687
 #step         1688
 #step         1689
 #step         1690
 #step         1691
 #step         1692
 #step         1693
 #step         1694
 #step         1695
 #step         1696
 #step         1697
 #step         1698
 #step         1699
 #step         1700
 #step         1701
 #step         1702
 #step         1703
 #step         1704
 #step         1705
 #step         1706
 #step         1707
 #step         1708
 #step         1709
 #step         1710
 #step         1711
 #step         1712
 #step         1713
 #step         1714
 #step         1715
 #step         1716
 #step         1717
 #step         1718
 #step         1719
 #step         1720
 #step         1721
 #step         1722
 #step         1723
 #step         1724
 #step         1725
 #step         1726
 #step         1727
 #step         1728
 #step         1729
 #step         1730
 #step         1731
 #step         1732
 #step         1733
 #step         1734
 #step         1735
 #step         1736
 #step         1737
 #step         1738
 #step         1739
 #step         1740
 #step         1741
 #step         1742
 #step         1743
 #step         1744
 #step         1745
 #step         1746
 #step         1747
 #step         1748
 #step         1749
 #step         1750
 #step         1751
 #step         1752
 #step         1753
 #step         1754
 #step         1755
 #step         1756
 #step         1757
 #step         1758
 #step         1759
 #step         1760
 #step         1761
 #step         1762
 #step         1763
 #step         1764
 #step         1765
 #step         1766
 #step         1767
 #step         1768
 #step         1769
 #step         1770
 #step         1771
 #step         1772
 #step         1773
 #step         1774
 #step         1775
 #step         1776
 #step         1777
 #step         1778
 #step         1779
 #step         1780
 #step         1781
 #step         1782
 #step         1783
 #step         1784
 #step         1785
 #step         1786
 #step         1787
 #step         1788
 #step         1789
 #step         1790
 #step         1791
 #step         1792
 #step         1793
 #step         1794
 #step         1795
 #step         1796
 #step         1797
 #step         1798
 #step         1799
 #step         1800
 #step         1801
 #step         1802
 #step         1803
 #step         1804
 #step         1805
 #step         1806
 #step         1807
 #step         1808
 #step         1809
 #step         1810
 #step         1811
 #step         1812
 #step         1813
 #step         1814
 #step         1815
 #step         1816
 #step         1817
 #step         1818
 #step         1819
 #step         1820
 #step         1821
 #step         1822
 #step         1823
 #step         1824
 #step         1825
 #step         1826
 #step         1827
 #step         1828
 #step         1829
 #step         1830
 #step         1831
 #step         1832
 #step         1833
 #step         1834
 #step         1835
 #step         1836
 #step         1837
 #step         1838
 #step         1839
 #step         1840
 #step         1841
 #step         1842
 #step         1843
 #step         1844
 #step         1845
 #step         1846
 #step         1847
 #step         1848
 #step         1849
 #step         1850
 #step         1851
 #step         1852
 #step         1853
 #step         1854
 #step         1855
 #step         1856
 #step         1857
 #step         1858
 #step         1859
 #step         1860
 #step         1861
 #step         1862
 #step         1863
 #step         1864
 #step         1865
 #step         1866
 #step         1867
 #step         1868
 #step         1869
 #step         1870
 #step         1871
 #step         1872
 #step         1873
 #step         1874
 #step         1875
 #step         1876
 #step         1877
 #step         1878
 #step         1879
 #step         1880
 #step         1881
 #step         1882
 #step         1883
 #step         1884
 #step         1885
 #step         1886
 #step         1887
 #step         1888
 #step         1889
 #step         1890
 #step         1891
 #step         1892
 #step         1893
 #step         1894
 #step         1895
 #step         1896
 #step         1897
 #step         1898
 #step         1899
 #step         1900
 #step         1901
 #step         1902
 #step         1903
 #step         1904
 #step         1905
 #step         1906
 #step         1907
 #step         1908
 #step         1909
 #step         1910
 #step         1911
 #step         1912
 #step         1913
 #step         1914
 #step         1915
 #step         1916
 #step         1917
 #step         1918
 #step         1919
 #step         1920
 #step         1921
 #step         1922
 #step         1923
 #step         1924
 #step         1925
 #step         1926
 #step         1927
 #step         1928
 #step         1929
 #step         1930
 #step         1931
 #step         1932
 #step         1933
 #step         1934
 #step         1935
 #step         1936
 #step         1937
 #step         1938
 #step         1939
 #step         1940
 #step         1941
 #step         1942
 #step         1943
 #step         1944
 #step         1945
 #step         1946
 #step         1947
 #step         1948
 #step         1949
 #step         1950
 #step         1951
 #step         1952
 #step         1953
 #step         1954
 #step         1955
 #step         1956
 #step         1957
 #step         1958
 #step         1959
 #step         1960
 #step         1961
 #step         1962
 #step         1963
 #step         1964
 #step         1965
 #step         1966
 #step         1967
 #step         1968
 #step         1969
 #step         1970
 #step         1971
 #step         1972
 #step         1973
 #step         1974
 #step         1975
 #step         1976
 #step         1977
 #step         1978
 #step         1979
 #step         1980
 #step         1981
 #step         1982
 #step         1983
 #step         1984
 #step         1985
 #step         1986
 #step         1987
 #step         1988
 #step         1989
 #step         1990
 #step         1991
 #step         1992
 #step         1993
 #step         1994
 #step         1995
 #step         1996
 #step         1997
 #step         1998
 #step         1999
 #step         2000
 #step         2001
 #step         2002
 #step         2003
 #step         2004
 #step         2005
 #step         2006
 #step         2007
 #step         2008
 #step         2009
 #step         2010
 #step         2011
 #step         2012
 #step         2013
 #step         2014
 #step         2015
 #step         2016
 #step         2017
 #step         2018
 #step         2019
 #step         2020
 #step         2021
 #step         2022
 #step         2023
 #step         2024
 #step         2025
 #step         2026
 #step         2027
 #step         2028
 #step         2029
 #step         2030
 #step         2031
 #step         2032
 #step         2033
 #step         2034
 #step         2035
 #step         2036
 #step         2037
 #step         2038
 #step         2039
 #step         2040
 #step         2041
 #step         2042
 #step         2043
 #step         2044
 #step         2045
 #step         2046
 #step         2047
 #step         2048
